진동학실험/data/F0010CH1.CSV

Record Length,2.500000e+03,,  -0.390000000000,   0.00000,
Sample Interval,1.000000e-03,,  -0.389000000000,   0.00000,
Trigger Point,3.900000000000e+02,,  -0.388000000000,   0.00000,
,,,  -0.387000000000,   0.00000,
,,,  -0.386000000000,   0.00000,
,,,  -0.385000000000,   0.00000,
Source,CH1,,  -0.384000000000,  -0.40000,
Vertical Units,V,,  -0.383000000000,   0.00000,
Vertical Scale,1.000000e+01,,  -0.382000000000,   0.00000,
Vertical Offset,-8.000000e-01,,  -0.381000000000,   0.00000,
Horizontal Units,s,,  -0.380000000000,   0.00000,
Horizontal Scale,2.500000e-01,,  -0.379000000000,   0.00000,
Pt Fmt,Y,,  -0.378000000000,   0.00000,
Yzero,0.000000e+00,,  -0.377000000000,   0.40000,
Probe Atten,1.000000e+01,,  -0.376000000000,   0.00000,
Model Number,TBS1052B-EDU,,  -0.375000000000,   0.00000,
Serial Number,C052132,,  -0.374000000000,   0.00000,
Firmware Version,FV:v4.06,,  -0.373000000000,   0.00000,
,,,-00.372000000000,   0.40000,
,,,-00.371000000000,   0.00000,
,,,-00.370000000000,   0.00000,
,,,-00.369000000000,   0.00000,
,,,-00.368000000000,   0.00000,
,,,-00.367000000000,   0.00000,
,,,-00.366000000000,   0.00000,
,,,-00.365000000000,   0.00000,
,,,-00.364000000000,   0.00000,
,,,-00.363000000000,   0.40000,
,,,-00.362000000000,   0.40000,
,,,-00.361000000000,   0.40000,
,,,-00.360000000000,   0.40000,
,,,-00.359000000000,   0.40000,
,,,-00.358000000000,   0.40000,
,,,-00.357000000000,   0.00000,
,,,-00.356000000000,   0.40000,
,,,-00.355000000000,   0.40000,
,,,-00.354000000000,   0.40000,
,,,-00.353000000000,   0.40000,
,,,-00.352000000000,   0.40000,
,,,-00.351000000000,   0.40000,
,,,-00.350000000000,   0.40000,
,,,-00.349000000000,   0.40000,
,,,-00.348000000000,   0.40000,
,,,-00.347000000000,   0.40000,
,,,-00.346000000000,   0.40000,
,,,-00.345000000000,   0.40000,
,,,-00.344000000000,   0.00000,
,,,-00.343000000000,   0.40000,
,,,-00.342000000000,   0.40000,
,,,-00.341000000000,   0.40000,
,,,-00.340000000000,   0.40000,
,,,-00.339000000000,   0.40000,
,,,-00.338000000000,   0.00000,
,,,-00.337000000000,   0.00000,
,,,-00.336000000000,   0.00000,
,,,-00.335000000000,   0.00000,
,,,-00.334000000000,   0.00000,
,,,-00.333000000000,   0.40000,
,,,-00.332000000000,   0.00000,
,,,-00.331000000000,   0.00000,
,,,-00.330000000000,   0.00000,
,,,-00.329000000000,   0.00000,
,,,-00.328000000000,   0.00000,
,,,-00.327000000000,   0.00000,
,,,-00.326000000000,   0.00000,
,,,-00.325000000000,   0.00000,
,,,-00.324000000000,   0.40000,
,,,-00.323000000000,   0.00000,
,,,-00.322000000000,   0.00000,
,,,-00.321000000000,   0.00000,
,,,-00.320000000000,   0.00000,
,,,-00.319000000000,   0.00000,
,,,-00.318000000000,   0.00000,
,,,-00.317000000000,   0.00000,
,,,-00.316000000000,   0.00000,
,,,-00.315000000000,   0.00000,
,,,-00.314000000000,   0.00000,
,,,-00.313000000000,   0.00000,
,,,-00.312000000000,   0.00000,
,,,-00.311000000000,   0.00000,
,,,-00.310000000000,   0.00000,
,,,-00.309000000000,   0.00000,
,,,-00.308000000000,   0.00000,
,,,-00.307000000000,   0.00000,
,,,-00.306000000000,   0.00000,
,,,-00.305000000000,   0.00000,
,,,-00.304000000000,   0.00000,
,,,-00.303000000000,   0.00000,
,,,-00.302000000000,   0.00000,
,,,-00.301000000000,   0.00000,
,,,-00.300000000000,   0.00000,
,,,-00.299000000000,   0.00000,
,,,-00.298000000000,   0.00000,
,,,-00.297000000000,   0.00000,
,,,-00.296000000000,   0.00000,
,,,-00.295000000000,   0.00000,
,,,-00.294000000000,   0.00000,
,,,-00.293000000000,   0.40000,
,,,-00.292000000000,   0.00000,
,,,-00.291000000000,   0.00000,
,,,-00.290000000000,   0.00000,
,,,-00.289000000000,   0.00000,
,,,-00.288000000000,   0.00000,
,,,-00.287000000000,   0.00000,
,,,-00.286000000000,   0.00000,
,,,-00.285000000000,   0.00000,
,,,-00.284000000000,   0.00000,
,,,-00.283000000000,   0.00000,
,,,-00.282000000000,   0.00000,
,,,-00.281000000000,   0.40000,
,,,-00.280000000000,   0.40000,
,,,-00.279000000000,   0.00000,
,,,-00.278000000000,   0.00000,
,,,-00.277000000000,   0.40000,
,,,-00.276000000000,   0.40000,
,,,-00.275000000000,   0.00000,
,,,-00.274000000000,   0.40000,
,,,-00.273000000000,   0.40000,
,,,-00.272000000000,   0.40000,
,,,-00.271000000000,   0.40000,
,,,-00.270000000000,   0.00000,
,,,-00.269000000000,   0.40000,
,,,-00.268000000000,   0.00000,
,,,-00.267000000000,   0.40000,
,,,-00.266000000000,   0.40000,
,,,-00.265000000000,   0.00000,
,,,-00.264000000000,   0.00000,
,,,-00.263000000000,   0.00000,
,,,-00.262000000000,   0.40000,
,,,-00.261000000000,   0.40000,
,,,-00.260000000000,   0.40000,
,,,-00.259000000000,   0.40000,
,,,-00.258000000000,   0.40000,
,,,-00.257000000000,   0.40000,
,,,-00.256000000000,   0.40000,
,,,-00.255000000000,   0.40000,
,,,-00.254000000000,   0.00000,
,,,-00.253000000000,   0.40000,
,,,-00.252000000000,   0.40000,
,,,-00.251000000000,   0.40000,
,,,-00.250000000000,   0.40000,
,,,-00.249000000000,   0.40000,
,,,-00.248000000000,   0.00000,
,,,-00.247000000000,   0.00000,
,,,-00.246000000000,   0.00000,
,,,-00.245000000000,   0.00000,
,,,-00.244000000000,   0.00000,
,,,-00.243000000000,   0.40000,
,,,-00.242000000000,   0.40000,
,,,-00.241000000000,   0.00000,
,,,-00.240000000000,   0.00000,
,,,-00.239000000000,   0.00000,
,,,-00.238000000000,   0.00000,
,,,-00.237000000000,   0.00000,
,,,-00.236000000000,   0.40000,
,,,-00.235000000000,   0.00000,
,,,-00.234000000000,   0.00000,
,,,-00.233000000000,   0.40000,
,,,-00.232000000000,   0.00000,
,,,-00.231000000000,   0.00000,
,,,-00.230000000000,   0.40000,
,,,-00.229000000000,   0.40000,
,,,-00.228000000000,   0.40000,
,,,-00.227000000000,   0.00000,
,,,-00.226000000000,   0.40000,
,,,-00.225000000000,   0.00000,
,,,-00.224000000000,   0.40000,
,,,-00.223000000000,   0.00000,
,,,-00.222000000000,   0.00000,
,,,-00.221000000000,   0.40000,
,,,-00.220000000000,   0.00000,
,,,-00.219000000000,   0.00000,
,,,-00.218000000000,   0.00000,
,,,-00.217000000000,   0.00000,
,,,-00.216000000000,   0.00000,
,,,-00.215000000000,   0.00000,
,,,-00.214000000000,   0.00000,
,,,-00.213000000000,   0.00000,
,,,-00.212000000000,   0.00000,
,,,-00.211000000000,   0.00000,
,,,-00.210000000000,   0.00000,
,,,-00.209000000000,   0.00000,
,,,-00.208000000000,  -0.40000,
,,,-00.207000000000,   0.00000,
,,,-00.206000000000,   0.00000,
,,,-00.205000000000,   0.00000,
,,,-00.204000000000,   0.00000,
,,,-00.203000000000,   0.00000,
,,,-00.202000000000,   0.00000,
,,,-00.201000000000,   0.00000,
,,,-00.200000000000,   0.00000,
,,,-00.199000000000,   0.00000,
,,,-00.198000000000,   0.00000,
,,,-00.197000000000,   0.00000,
,,,-00.196000000000,   0.00000,
,,,-00.195000000000,   0.00000,
,,,-00.194000000000,   0.00000,
,,,-00.193000000000,   0.00000,
,,,-00.192000000000,   0.00000,
,,,-00.191000000000,   0.40000,
,,,-00.190000000000,   0.00000,
,,,-00.189000000000,   0.00000,
,,,-00.188000000000,   0.40000,
,,,-00.187000000000,   0.40000,
,,,-00.186000000000,   0.40000,
,,,-00.185000000000,   0.40000,
,,,-00.184000000000,   0.40000,
,,,-00.183000000000,   0.00000,
,,,-00.182000000000,   0.40000,
,,,-00.181000000000,   0.40000,
,,,-00.180000000000,   0.40000,
,,,-00.179000000000,   0.40000,
,,,-00.178000000000,   0.00000,
,,,-00.177000000000,   0.00000,
,,,-00.176000000000,   0.40000,
,,,-00.175000000000,   0.00000,
,,,-00.174000000000,   0.40000,
,,,-00.173000000000,   0.40000,
,,,-00.172000000000,   0.00000,
,,,-00.171000000000,   0.40000,
,,,-00.170000000000,   0.00000,
,,,-00.169000000000,   0.00000,
,,,-00.168000000000,   0.40000,
,,,-00.167000000000,   0.00000,
,,,-00.166000000000,   0.00000,
,,,-00.165000000000,   0.00000,
,,,-00.164000000000,   0.00000,
,,,-00.163000000000,   0.00000,
,,,-00.162000000000,   0.00000,
,,,-00.161000000000,   0.00000,
,,,-00.160000000000,   0.00000,
,,,-00.159000000000,   0.00000,
,,,-00.158000000000,   0.00000,
,,,-00.157000000000,   0.00000,
,,,-00.156000000000,   0.00000,
,,,-00.155000000000,   0.00000,
,,,-00.154000000000,   0.00000,
,,,-00.153000000000,   0.00000,
,,,-00.152000000000,   0.00000,
,,,-00.151000000000,   0.00000,
,,,-00.150000000000,   0.00000,
,,,-00.149000000000,   0.00000,
,,,-00.148000000000,   0.00000,
,,,-00.147000000000,  -0.40000,
,,,-00.146000000000,   0.00000,
,,,-00.145000000000,   0.00000,
,,,-00.144000000000,   0.00000,
,,,-00.143000000000,   0.00000,
,,,-00.142000000000,   0.00000,
,,,-00.141000000000,   0.00000,
,,,-00.140000000000,   0.40000,
,,,-00.139000000000,   0.00000,
,,,-00.138000000000,   0.00000,
,,,-00.137000000000,   0.00000,
,,,-00.136000000000,   0.00000,
,,,-00.135000000000,   0.00000,
,,,-00.134000000000,   0.00000,
,,,-00.133000000000,   0.00000,
,,,-00.132000000000,   0.00000,
,,,-00.131000000000,   0.00000,
,,,-00.130000000000,   0.00000,
,,,-00.129000000000,   0.00000,
,,,-00.128000000000,   0.00000,
,,,-00.127000000000,   0.00000,
,,,-00.126000000000,   0.40000,
,,,-00.125000000000,   0.00000,
,,,-00.124000000000,   0.40000,
,,,-00.123000000000,   0.00000,
,,,-00.122000000000,   0.40000,
,,,-00.121000000000,   0.40000,
,,,-00.120000000000,   0.40000,
,,,-00.119000000000,   0.40000,
,,,-00.118000000000,   0.40000,
,,,-00.117000000000,   0.40000,
,,,-00.116000000000,   0.00000,
,,,-00.115000000000,   0.40000,
,,,-00.114000000000,   0.40000,
,,,-00.113000000000,   0.40000,
,,,-00.112000000000,   0.40000,
,,,-00.111000000000,   0.40000,
,,,-00.110000000000,   0.40000,
,,,-00.109000000000,   0.40000,
,,,-00.108000000000,   0.00000,
,,,-00.107000000000,   0.40000,
,,,-00.106000000000,   0.40000,
,,,-00.105000000000,   0.00000,
,,,-00.104000000000,   0.40000,
,,,-00.103000000000,   0.40000,
,,,-00.102000000000,   0.40000,
,,,-00.101000000000,   0.40000,
,,,-00.100000000000,   0.40000,
,,,-00.099000000000,   0.40000,
,,,-00.098000000000,   0.40000,
,,,-00.097000000000,   0.40000,
,,,-00.096000000000,   0.40000,
,,,-00.095000000000,   0.00000,
,,,-00.094000000000,   0.00000,
,,,-00.093000000000,   0.40000,
,,,-00.092000000000,   0.00000,
,,,-00.091000000000,   0.00000,
,,,-00.090000000000,   0.00000,
,,,-00.089000000000,   0.00000,
,,,-00.088000000000,   0.00000,
,,,-00.087000000000,   0.00000,
,,,-00.086000000000,   0.00000,
,,,-00.085000000000,   0.00000,
,,,-00.084000000000,   0.00000,
,,,-00.083000000000,   0.00000,
,,,-00.082000000000,   0.00000,
,,,-00.081000000000,   0.00000,
,,,-00.080000000000,   0.00000,
,,,-00.079000000000,   0.00000,
,,,-00.078000000000,   0.00000,
,,,-00.077000000000,   0.00000,
,,,-00.076000000000,   0.00000,
,,,-00.075000000000,  -0.40000,
,,,-00.074000000000,  -0.40000,
,,,-00.073000000000,   0.00000,
,,,-00.072000000000,   0.00000,
,,,-00.071000000000,   0.00000,
,,,-00.070000000000,  -0.40000,
,,,-00.069000000000,   0.00000,
,,,-00.068000000000,   0.00000,
,,,-00.067000000000,  -0.40000,
,,,-00.066000000000,   0.00000,
,,,-00.065000000000,   0.40000,
,,,-00.064000000000,   0.00000,
,,,-00.063000000000,   0.00000,
,,,-00.062000000000,   0.00000,
,,,-00.061000000000,   0.00000,
,,,-00.060000000000,   0.00000,
,,,-00.059000000000,   0.00000,
,,,-00.058000000000,   0.00000,
,,,-00.057000000000,   0.00000,
,,,-00.056000000000,   0.00000,
,,,-00.055000000000,  -0.40000,
,,,-00.054000000000,   0.00000,
,,,-00.053000000000,   0.00000,
,,,-00.052000000000,   0.00000,
,,,-00.051000000000,   0.00000,
,,,-00.050000000000,   0.00000,
,,,-00.049000000000,   0.00000,
,,,-00.048000000000,  -0.40000,
,,,-00.047000000000,  -0.40000,
,,,-00.046000000000,   0.00000,
,,,-00.045000000000,   0.00000,
,,,-00.044000000000,   0.00000,
,,,-00.043000000000,   0.00000,
,,,-00.042000000000,  -0.40000,
,,,-00.041000000000,   0.00000,
,,,-00.040000000000,   0.00000,
,,,-00.039000000000,   0.00000,
,,,-00.038000000000,   0.00000,
,,,-00.037000000000,   0.00000,
,,,-00.036000000000,  -0.40000,
,,,-00.035000000000,   0.00000,
,,,-00.034000000000,  -0.40000,
,,,-00.033000000000,   0.00000,
,,,-00.032000000000,  -0.40000,
,,,-00.031000000000,   0.40000,
,,,-00.030000000000,   0.00000,
,,,-00.029000000000,   0.00000,
,,,-00.028000000000,   0.00000,
,,,-00.027000000000,   0.00000,
,,,-00.026000000000,   0.40000,
,,,-00.025000000000,  -0.40000,
,,,-00.024000000000,  -0.40000,
,,,-00.023000000000,   0.00000,
,,,-00.022000000000,  -0.40000,
,,,-00.021000000000,  -6.80000,
,,,-00.020000000000,  -8.40000,
,,,-00.019000000000,  -4.80000,
,,,-00.018000000000,  -4.80000,
,,,-00.017000000000,  -6.00000,
,,,-00.016000000000, -11.20000,
,,,-00.015000000000, -10.80000,
,,,-00.014000000000,  -8.40000,
,,,-00.013000000000,  -2.40000,
,,,-00.012000000000,  -3.60000,
,,,-00.011000000000,  -1.20000,
,,,-00.010000000000,  -6.80000,
,,,-00.009000000000,  -6.00000,
,,,-00.008000000000,  -3.60000,
,,,-00.007000000000,   3.20000,
,,,-00.006000000000,   2.00000,
,,,-00.005000000000,   3.60000,
,,,-00.004000000000,   1.20000,
,,,-00.003000000000,  -1.20000,
,,,-00.002000000000,   0.80000,
,,,-00.001000000000,   6.80000,
,,,-00.000000000000,   8.40000,
,,,00.001000000000,   8.80000,
,,,00.002000000000,   5.20000,
,,,00.003000000000,   4.00000,
,,,00.004000000000,   5.20000,
,,,00.005000000000,   8.80000,
,,,00.006000000000,  11.60000,
,,,00.007000000000,  12.00000,
,,,00.008000000000,   9.20000,
,,,00.009000000000,   6.80000,
,,,00.010000000000,   7.20000,
,,,00.011000000000,   9.20000,
,,,00.012000000000,  11.60000,
,,,00.013000000000,  11.60000,
,,,00.014000000000,   9.20000,
,,,00.015000000000,   6.40000,
,,,00.016000000000,   6.00000,
,,,00.017000000000,   7.60000,
,,,00.018000000000,   8.80000,
,,,00.019000000000,   8.80000,
,,,00.020000000000,   6.00000,
,,,00.021000000000,   3.20000,
,,,00.022000000000,   2.00000,
,,,00.023000000000,   3.20000,
,,,00.024000000000,   4.80000,
,,,00.025000000000,   4.00000,
,,,00.026000000000,   1.20000,
,,,00.027000000000,  -2.00000,
,,,00.028000000000,  -0.40000,
,,,00.029000000000,  -3.20000,
,,,00.030000000000,  -1.20000,
,,,00.031000000000,  -1.20000,
,,,00.032000000000,  -3.20000,
,,,00.033000000000,  -6.40000,
,,,00.034000000000,  -8.00000,
,,,00.035000000000,  -7.20000,
,,,00.036000000000,  -5.20000,
,,,00.037000000000,  -5.20000,
,,,00.038000000000,  -7.20000,
,,,00.039000000000,  -9.60000,
,,,00.040000000000, -10.40000,
,,,00.041000000000, -10.00000,
,,,00.042000000000,  -7.60000,
,,,00.043000000000,  -7.20000,
,,,00.044000000000,  -8.40000,
,,,00.045000000000, -10.40000,
,,,00.046000000000, -10.40000,
,,,00.047000000000,  -9.20000,
,,,00.048000000000,  -6.80000,
,,,00.049000000000,  -6.00000,
,,,00.050000000000,  -6.80000,
,,,00.051000000000,  -8.00000,
,,,00.052000000000,  -7.60000,
,,,00.053000000000,  -5.20000,
,,,00.054000000000,  -3.60000,
,,,00.055000000000,  -2.80000,
,,,00.056000000000,  -3.20000,
,,,00.057000000000,  -3.60000,
,,,00.058000000000,  -2.40000,
,,,00.059000000000,  -0.40000,
,,,00.060000000000,   1.60000,
,,,00.061000000000,   3.20000,
,,,00.062000000000,   3.60000,
,,,00.063000000000,   2.40000,
,,,00.064000000000,   3.60000,
,,,00.065000000000,   4.40000,
,,,00.066000000000,   6.80000,
,,,00.067000000000,   6.80000,
,,,00.068000000000,   6.80000,
,,,00.069000000000,   6.40000,
,,,00.070000000000,   6.80000,
,,,00.071000000000,   8.00000,
,,,00.072000000000,   9.20000,
,,,00.073000000000,  10.00000,
,,,00.074000000000,   9.20000,
,,,00.075000000000,   8.40000,
,,,00.076000000000,   8.40000,
,,,00.077000000000,   8.80000,
,,,00.078000000000,   9.60000,
,,,00.079000000000,  10.00000,
,,,00.080000000000,   8.80000,
,,,00.081000000000,   8.00000,
,,,00.082000000000,   6.80000,
,,,00.083000000000,   6.80000,
,,,00.084000000000,   7.20000,
,,,00.085000000000,   6.80000,
,,,00.086000000000,   6.00000,
,,,00.087000000000,   4.40000,
,,,00.088000000000,   3.20000,
,,,00.089000000000,   2.80000,
,,,00.090000000000,   2.80000,
,,,00.091000000000,   2.00000,
,,,00.092000000000,   0.80000,
,,,00.093000000000,  -0.80000,
,,,00.094000000000,  -2.80000,
,,,00.095000000000,  -1.20000,
,,,00.096000000000,  -2.40000,
,,,00.097000000000,  -2.40000,
,,,00.098000000000,  -3.60000,
,,,00.099000000000,  -5.20000,
,,,00.100000000000,  -6.40000,
,,,00.101000000000,  -6.80000,
,,,00.102000000000,  -6.80000,
,,,00.103000000000,  -6.80000,
,,,00.104000000000,  -7.60000,
,,,00.105000000000,  -8.40000,
,,,00.106000000000,  -9.20000,
,,,00.107000000000,  -8.80000,
,,,00.108000000000,  -8.40000,
,,,00.109000000000,  -8.40000,
,,,00.110000000000,  -8.40000,
,,,00.111000000000,  -9.20000,
,,,00.112000000000,  -9.20000,
,,,00.113000000000,  -8.80000,
,,,00.114000000000,  -7.60000,
,,,00.115000000000,  -6.80000,
,,,00.116000000000,  -6.80000,
,,,00.117000000000,  -6.80000,
,,,00.118000000000,  -6.40000,
,,,00.119000000000,  -5.20000,
,,,00.120000000000,  -4.00000,
,,,00.121000000000,  -3.20000,
,,,00.122000000000,  -2.40000,
,,,00.123000000000,  -2.00000,
,,,00.124000000000,  -1.60000,
,,,00.125000000000,  -0.40000,
,,,00.126000000000,   0.80000,
,,,00.127000000000,   2.80000,
,,,00.128000000000,   4.40000,
,,,00.129000000000,   4.40000,
,,,00.130000000000,   3.60000,
,,,00.131000000000,   3.60000,
,,,00.132000000000,   5.20000,
,,,00.133000000000,   6.00000,
,,,00.134000000000,   6.80000,
,,,00.135000000000,   7.20000,
,,,00.136000000000,   7.60000,
,,,00.137000000000,   8.40000,
,,,00.138000000000,   8.40000,
,,,00.139000000000,   8.80000,
,,,00.140000000000,   8.80000,
,,,00.141000000000,   9.20000,
,,,00.142000000000,   8.40000,
,,,00.143000000000,   8.80000,
,,,00.144000000000,   8.80000,
,,,00.145000000000,   8.80000,
,,,00.146000000000,   8.40000,
,,,00.147000000000,   8.00000,
,,,00.148000000000,   7.20000,
,,,00.149000000000,   6.80000,
,,,00.150000000000,   6.40000,
,,,00.151000000000,   5.60000,
,,,00.152000000000,   5.20000,
,,,00.153000000000,   4.00000,
,,,00.154000000000,   3.60000,
,,,00.155000000000,   2.40000,
,,,00.156000000000,   2.00000,
,,,00.157000000000,   1.20000,
,,,00.158000000000,   0.40000,
,,,00.159000000000,  -1.20000,
,,,00.160000000000,  -1.20000,
,,,00.161000000000,  -4.40000,
,,,00.162000000000,  -3.60000,
,,,00.163000000000,  -4.00000,
,,,00.164000000000,  -4.40000,
,,,00.165000000000,  -5.20000,
,,,00.166000000000,  -6.00000,
,,,00.167000000000,  -6.80000,
,,,00.168000000000,  -6.80000,
,,,00.169000000000,  -7.60000,
,,,00.170000000000,  -8.00000,
,,,00.171000000000,  -8.00000,
,,,00.172000000000,  -8.40000,
,,,00.173000000000,  -8.80000,
,,,00.174000000000,  -8.80000,
,,,00.175000000000,  -8.40000,
,,,00.176000000000,  -8.40000,
,,,00.177000000000,  -8.40000,
,,,00.178000000000,  -8.40000,
,,,00.179000000000,  -8.00000,
,,,00.180000000000,  -7.60000,
,,,00.181000000000,  -6.80000,
,,,00.182000000000,  -6.40000,
,,,00.183000000000,  -6.00000,
,,,00.184000000000,  -5.20000,
,,,00.185000000000,  -4.80000,
,,,00.186000000000,  -4.00000,
,,,00.187000000000,  -3.20000,
,,,00.188000000000,  -2.40000,
,,,00.189000000000,  -1.60000,
,,,00.190000000000,  -0.80000,
,,,00.191000000000,   0.00000,
,,,00.192000000000,   1.20000,
,,,00.193000000000,   0.40000,
,,,00.194000000000,   2.40000,
,,,00.195000000000,   4.00000,
,,,00.196000000000,   4.80000,
,,,00.197000000000,   5.20000,
,,,00.198000000000,   6.00000,
,,,00.199000000000,   6.00000,
,,,00.200000000000,   6.80000,
,,,00.201000000000,   7.20000,
,,,00.202000000000,   8.00000,
,,,00.203000000000,   8.00000,
,,,00.204000000000,   8.40000,
,,,00.205000000000,   8.80000,
,,,00.206000000000,   8.80000,
,,,00.207000000000,   9.20000,
,,,00.208000000000,   8.80000,
,,,00.209000000000,   8.80000,
,,,00.210000000000,   8.40000,
,,,00.211000000000,   8.40000,
,,,00.212000000000,   8.00000,
,,,00.213000000000,   8.00000,
,,,00.214000000000,   7.20000,
,,,00.215000000000,   6.80000,
,,,00.216000000000,   6.00000,
,,,00.217000000000,   5.20000,
,,,00.218000000000,   4.80000,
,,,00.219000000000,   4.00000,
,,,00.220000000000,   3.20000,
,,,00.221000000000,   2.40000,
,,,00.222000000000,   1.60000,
,,,00.223000000000,   0.80000,
,,,00.224000000000,   0.00000,
,,,00.225000000000,  -1.20000,
,,,00.226000000000,  -1.20000,
,,,00.227000000000,  -2.00000,
,,,00.228000000000,  -4.00000,
,,,00.229000000000,  -4.80000,
,,,00.230000000000,  -4.80000,
